Sequential Conditional (Marginally Optimal) Transport on Probabilistic Graphs for Interpretable Counterfactual Fairness - 1 Law Dataset
…
Let us save this table in a CSV file (this file will be used to perform multivariate transport in python):

write.csv(factuals_aware, file = "data/factuals_aware.csv", row.names = FALSE)

Recall we created an object called df_counterfactuals_fpt which contains the counterfactual characteristics of all students, obtained with fairadapt:

df_counterfactuals_fpt

# A tibble: 19,567 × 3
   S        X1    X2
   <fct> <dbl> <dbl>
 1 Black  2.7   31.3
 2 Black  2.6   28  
 3 Black  2.7   21  
 4 Black  3.1   28.1
 5 Black  3.3   21.0
 6 Black  3.3   26.9
 7 Black  2.4   29.6
 8 Black  2.3   29.8
 9 Black  3.3   21  
10 Black  2.85  33.5
# ℹ 19,557 more rows
…
1.4.2.2 Aware Model

Let us make prediction with the aware model on the counterfactuals obtained with OT:

pred_aware_ot <- predict(
  model_aware, newdata = counterfactuals_ot, type = "response"
)
counterfactuals_aware_ot <- counterfactuals_ot |>  
  mutate(pred = pred_aware_ot, type = "counterfactual")
counterfactuals_aware_ot

# A tibble: 19,567 × 5
      X1    X2 S       pred type          
   <dbl> <dbl> <fct>  <dbl> <chr>         
 1   2.7  31   Black 0.141  counterfactual
 2   2.7  28   Black 0.120  counterfactual
 3   2.6  21   Black 0.0791 counterfactual
 4   3.1  28   Black 0.143  counterfactual
 5   3.2  21   Black 0.104  counterfactual
 6   3.3  27.5 Black 0.152  counterfactual
 7   2.4  29   Black 0.111  counterfactual
 8   2.3  29   Black 0.106  counterfactual
 9   3.3  22   Black 0.115  counterfactual
10   2.8  34   Black 0.171  counterfactual
# ℹ 19,557 more rows
…
