7 Fairadapt – Sequential Conditional (Marginally Optimal) Transport on Probabilistic Graphs for Interpretable Counterfactual Fairness
…
Let us save this table in a CSV file (this file will be used to perform multivariate transport in python):

write.csv(
  factuals_aware, file = "../data/factuals_aware.csv", row.names = FALSE
)

Recall we created an object called df_counterfactuals_fpt which contains the counterfactual characteristics of all students, obtained with fairadapt:

df_counterfactuals_fpt

# A tibble: 19,567 × 3
   S        X1    X2
   <fct> <dbl> <dbl>
 1 Black  2.7   31.3
 2 Black  2.6   28  
 3 Black  2.7   21  
 4 Black  3.1   28.1
 5 Black  3.3   21.0
 6 Black  3.3   26.9
 7 Black  2.4   29.6
 8 Black  2.3   29.8
 9 Black  3.3   21  
10 Black  2.85  33.5
# ℹ 19,557 more rows
…
