12 Adult Dataset – Sequential Conditional (Marginally Optimal) Transport on Probabilistic Graphs for Interpretable Counterfactual Fairness
…
12.3.2 Aware Model

Now, we turn to the model that includes the sensitive attribute, i.e., the aware model.

Recall we created an object called df_counterfactuals_fpt which contains the counterfactual characteristics of all students, obtained with fairadapt:

df_counterfactuals_fpt

# A tibble: 2,000 × 9
   sex      age native_country    marital_status education_num workclass    
   <fct>  <dbl> <fct>             <fct>                  <dbl> <fct>        
 1 Male      18 United-States     Not-Married               13 Private      
 2 Female    55 United-States     Not-Married               14 Private      
 3 Female    50 Not-United-States Not-Married               10 Private      
 4 Female    25 United-States     Not-Married                7 Other/Unknown
 5 Male      36 United-States     Married                    9 Government   
 6 Female    26 United-States     Not-Married               10 Private      
 7 Female    47 United-States     Not-Married               10 Private      
 8 Female    40 Not-United-States Married                    9 Private      
 9 Female    34 United-States     Not-Married               12 Private      
10 Male      39 United-States     Not-Married               13 Private      
# ℹ 1,990 more rows
# ℹ 3 more variables: hours_per_week <dbl>, occupation <fct>, income <fct>
…
