5 Wrong Causal Assumptions – Sequential Conditional (Marginally Optimal) Transport on Probabilistic Graphs for Interpretable Counterfactual Fairness
…
counterfactuals_ot <- 
  read_csv("../data/../data/counterfactuals_ot_test_indep.csv")

Rows: 201 Columns: 2
── Column specification ────────────────────────────────────────────────────────
Delimiter: ","
dbl (2): X1, X2

ℹ Use `spec()` to retrieve the full column specification for this data.
ℹ Specify the column types or set `show_col_types = FALSE` to quiet this message.

counterfactuals_ot

# A tibble: 201 × 2
      X1    X2
   <dbl> <dbl>
 1  1.25  1.51
 2  1.82  1.24
 3  1.40  1.42
 4  1.80  1.99
 5  1.97  1.39
 6  1.06  1.84
 7  1.48  2.00
 8  1.77  1.59
 9  1.49  1.34
10  1.40  1.03
# ℹ 191 more rows
…
